#Разгрузка 
# Позитивная проверка расчета разгрузки 1 лист Разгрузка/Подъем 0 этаж
#Smoke
Тестовые данные: позитивная проверка расчета "Подъем в квартир" 1 лист									
* Предусловие:									
1. Открыть главную страницу сайта: тест сервер - https://test2.stroyrem-nn.ru/ , прод сервер - https://stroyrem-nn.ru/									
2. В поиск ввести "ГКЛ Гипсокартон Кнауф 2500х1200х9,5 мм"									
3. В открывшемся окне выбрать ГКЛВ Гипсокартон влагостойкий Кнауф 2500х1200х9,5 мм									
4. добавить 1 лист в корзину									
5. нажать на кнопку "корзина"									
6. в открывшемся окне нажать "Перейти к оформлению"									
7. В поле "ФИО" написать тест									
8. в поле "Телефон" написать +7(911)111-11-11									
9. в поле "Email" написать test@yandex.ru									
10. Нажать кнопку "Продолжить"									
* Шаги:									
1. Ввести в поле адрес любой адрес из Зелёной зоны или выбрать его на карте (17,Херсонская улица, Нижний Новгород).
2. Отметить любые варианты в разделах «Вариант доставки», «Время получения» и «Способ оплаты».
3. Выбрать Подъем до квартиры 
4. Указать 0 этаж без лифта									
									
* Ожидаемый результат: Расчитает разгрузку 1200+50=1250 								
									
Автор: Екатерина									
									
									
* Тестовый сервер									
									
| Дата | Время | Версия браузера Десктоп | Результат/Баг в Трелло Десктоп|  Версия браузера и ОС Тач |Результат/Баг в Трелло Тач| Дата релиза| QA  |									
| --- | --- | --- | --- |  --- | --- | --- | --- |									
| 2023-10-11 | 18:39 | Яндекс Браузер версия 23.9.1.967 (64-bit) | FAILED | Chrome версия 118.0.5993.70 | FAILED | 2023-09-03 | Екатерина |									
									
* Продовый сервер									
									
| Дата | Время | Версия браузера Десктоп | Результат/Баг в Трелло Десктоп|  Версия браузера и ОС Тач |Результат/Баг в Трелло Тач| Дата релиза| QA  |									
| --- | --- | --- | --- |  --- | --- | --- | --- |									
| 2023-10-11 | 18:39 | Яндекс Браузер версия 23.9.1.967 (64-bit) | FAILED | Chrome версия 118.0.5993.70 | FAILED | 2023-09-03 | Екатерина |									
									